Function to Generate Annual Change Scenarios Based on Sutherland Assumptions — gen_annual_change_scenarios • Reassessing the Evidence for Universal School-age BCG in England and Wales
…
      samples
      Numeric, the number of samples to generate for each scenario. Defaults to 10

    Value

    A dataframe with each row representing a sample, with annual decrease stored as a matrix

    See also

    TB_decrease_as_matrix

    Examples

gen_annual_change_scenarios()
#> # A tibble: 30 x 3
#>    scenario    sample annual_TB_decrease
#>    <chr>        <int> <list>            
#>  1 9% decrease      1 <dbl [55 × 3]>    
#>  2 9% decrease      2 <dbl [55 × 3]>    
#>  3 9% decrease      3 <dbl [55 × 3]>    
#>  4 9% decrease      4 <dbl [55 × 3]>    
#>  5 9% decrease      5 <dbl [55 × 3]>    
#>  6 9% decrease      6 <dbl [55 × 3]>    
#>  7 9% decrease      7 <dbl [55 × 3]>    
#>  8 9% decrease      8 <dbl [55 × 3]>    
#>  9 9% decrease      9 <dbl [55 × 3]>    
#> 10 9% decrease     10 <dbl [55 × 3]>    
#> # … with 20 more rows
…
