Function to Sample Model Parameters — sample_model_parameters • Reassessing the Evidence for Universal School-age BCG in England and Wales
…
    Value

    A tibble of parameter samples

    See also

    sample_incidence_rates

    Examples

sample_model_parameters()
#> # A tibble: 100 x 4
#>    sample incidence_rates per_year_one sym_lag
#>     <int> <list>                 <dbl>   <dbl>
#>  1      1 <list [5]>             0.764    1.40
#>  2      2 <list [5]>             0.764    1.39
#>  3      3 <list [5]>             0.764    1.48
#>  4      4 <list [5]>             0.764    1.51
#>  5      5 <list [5]>             0.764    1.39
#>  6      6 <list [5]>             0.764    1.42
#>  7      7 <list [5]>             0.764    1.45
#>  8      8 <list [5]>             0.764    1.50
#>  9      9 <list [5]>             0.764    1.39
#> 10     10 <list [5]>             0.764    1.37
#> # … with 90 more rows
…
